{
  "name": "del_frontend",
  "version": "0.1.0",
  "private": true,
  "dependencies": {
    "@testing-library/jest-dom": "^4.2.4",
    "@testing-library/react": "^9.3.2",
    "@testing-library/user-event": "^7.1.2",
    "axios": "^0.19.1",
    "classnames": "^2.2.6",
    "google-map-react": "^1.1.5",
    "primeflex": "^1.0.0",
    "react": "^16.12.0",
    "react-dom": "^16.12.0",
    "react-google-places-autocomplete": "^1.6.1",
    "react-router-dom": "^5.1.2",
    "react-scripts": "3.3.0",
    "react-transition-group": "^4.3.0"
  },
  "scripts": {
    "start": "react-scripts start",
    "build": "react-scripts build",
    "test": "react-scripts test",
    "eject": "react-scripts eject"
  },
  "eslintConfig": {
    "extends": "react-app"
  },
  "browserslist": {
    "production": [
      ">0.2%",
      "not dead",
      "not op_mini all"
    ],
    "development": [
      "last 1 chrome version",
      "last 1 firefox version",
      "last 1 safari version"
    ]
  }
}
