{
  "name": "del_frontend",
  "version": "0.1.0",
  "private": true,
  "engines": {
    "node": "10.16.3",
    "npm": "6.9.0"
  },
  "dependencies": {
    "@testing-library/jest-dom": "^4.2.4",
    "@testing-library/react": "^9.3.2",
    "@testing-library/user-event": "^7.1.2",
    "antd": "^3.26.6",
    "axios": "^0.19.1",
    "bootstrap": "^4.4.1",
    "classnames": "^2.2.6",
    "express": "^4.17.1",
    "express-favicon": "^2.0.1",
    "google-maps-react": "^2.0.2",
    "path": "^0.12.7",
    "primeflex": "^1.0.0",
    "react": "^16.12.0",
    "react-bootstrap": "^1.0.0-beta.16",
    "react-dom": "^16.12.0",
    "react-geocode": "^0.2.1",
    "react-google-maps": "^9.4.5",
    "react-google-places-autocomplete": "^1.6.1",
    "react-router-dom": "^5.1.2",
    "react-scripts": "3.3.0",
    "react-transition-group": "^4.3.0"
  },
  "scripts": {
    "start": "node server.js",
    "dev": "react-scripts start",
    "build": "react-scripts build",
    "test": "react-scripts test",
    "eject": "react-scripts eject"
  },
  "eslintConfig": {
    "extends": "react-app"
  },
  "browserslist": {
    "production": [
      ">0.2%",
      "not dead",
      "not op_mini all"
    ],
    "development": [
      "last 1 chrome version",
      "last 1 firefox version",
      "last 1 safari version"
    ]
  }
}
